[gd_scene load_steps=5 format=2]

[ext_resource path="res://assets/system/main_menu/control_room/emissive_portal_halo.material" type="Material" id=1]
[ext_resource path="res://scripts/system/main_menu/portal_halo.gd" type="Script" id=2]

[sub_resource type="ArrayMesh" id=1]
resource_name = "PortalHalo"
surfaces/0 = {
"aabb": AABB( -1, -1, -1, 2, 2.00001, 2 ),
"array_data": PoolByteArray( 22, 239, 195, 62, 0, 0, 128, 63, 94, 131, 108, 191, 48, 0, 139, 0, 0, 127, 0, 127, 0, 56, 128, 59, 0, 0, 0, 0, 0, 0, 128, 191, 0, 0, 128, 191, 0, 0, 130, 0, 0, 127, 0, 127, 0, 0, 0, 60, 22, 239, 195, 62, 0, 0, 128, 191, 94, 131, 108, 191, 48, 0, 139, 0, 0, 127, 0, 127, 0, 0, 128, 59, 22, 239, 195, 62, 0, 0, 128, 63, 94, 131, 108, 191, 48, 0, 139, 0, 0, 127, 0, 127, 0, 56, 128, 59, 0, 0, 0, 0, 0, 0, 128, 63, 0, 0, 128, 191, 0, 0, 130, 0, 0, 127, 0, 127, 0, 56, 0, 60, 0, 0, 0, 0, 0, 0, 128, 191, 0, 0, 128, 191, 0, 0, 130, 0, 0, 127, 0, 127, 0, 0, 0, 60, 243, 4, 53, 63, 0, 0, 128, 63, 243, 4, 53, 191, 89, 0, 167, 0, 0, 127, 0, 127, 0, 56, 0, 59, 22, 239, 195, 62, 0, 0, 128, 191, 94, 131, 108, 191, 48, 0, 139, 0, 0, 127, 0, 127, 0, 0, 128, 59, 243, 4, 53, 63, 0, 0, 128, 191, 243, 4, 53, 191, 89, 0, 167, 0, 0, 127, 0, 127, 0, 0, 0, 59, 243, 4, 53, 63, 0, 0, 128, 63, 243, 4, 53, 191, 89, 0, 167, 0, 0, 127, 0, 127, 0, 56, 0, 59, 22, 239, 195, 62, 0, 0, 128, 63, 94, 131, 108, 191, 48, 0, 139, 0, 0, 127, 0, 127, 0, 56, 128, 59, 22, 239, 195, 62, 0, 0, 128, 191, 94, 131, 108, 191, 48, 0, 139, 0, 0, 127, 0, 127, 0, 0, 128, 59, 94, 131, 108, 63, 0, 0, 128, 63, 21, 239, 195, 190, 117, 0, 208, 0, 0, 126, 0, 127, 0, 56, 128, 58, 243, 4, 53, 63, 0, 0, 128, 191, 243, 4, 53, 191, 89, 0, 167, 0, 0, 127, 0, 127, 0, 0, 0, 59, 94, 131, 108, 63, 0, 0, 128, 191, 21, 239, 195, 190, 117, 0, 208, 0, 0, 127, 0, 127, 0, 0, 128, 58, 94, 131, 108, 63, 0, 0, 128, 63, 21, 239, 195, 190, 117, 0, 208, 0, 0, 126, 0, 127, 0, 56, 128, 58, 243, 4, 53, 63, 0, 0, 128, 63, 243, 4, 53, 191, 89, 0, 167, 0, 0, 127, 0, 127, 0, 56, 0, 59, 243, 4, 53, 63, 0, 0, 128, 191, 243, 4, 53, 191, 89, 0, 167, 0, 0, 127, 0, 127, 0, 0, 0, 59, 0, 0, 128, 63, 0, 0, 128, 63, 46, 189, 59, 51, 127, 0, 0, 0, 0, 127, 0, 127, 0, 56, 0, 58, 94, 131, 108, 63, 0, 0, 128, 191, 21, 239, 195, 190, 117, 0, 208, 0, 0, 127, 0, 127, 0, 0, 128, 58, 0, 0, 128, 63, 0, 0, 128, 191, 46, 189, 59, 51, 127, 0, 0, 0, 0, 127, 0, 127, 0, 0, 0, 58, 0, 0, 128, 63, 0, 0, 128, 63, 46, 189, 59, 51, 127, 0, 0, 0, 0, 127, 0, 127, 0, 56, 0, 58, 94, 131, 108, 63, 0, 0, 128, 63, 21, 239, 195, 190, 117, 0, 208, 0, 0, 126, 0, 127, 0, 56, 128, 58, 94, 131, 108, 63, 0, 0, 128, 191, 21, 239, 195, 190, 117, 0, 208, 0, 0, 127, 0, 127, 0, 0, 128, 58, 94, 131, 108, 63, 0, 0, 128, 63, 24, 239, 195, 62, 117, 0, 48, 0, 0, 127, 0, 127, 0, 56, 128, 57, 0, 0, 128, 63, 0, 0, 128, 191, 46, 189, 59, 51, 127, 0, 0, 0, 0, 127, 0, 127, 0, 0, 0, 58, 94, 131, 108, 63, 0, 0, 128, 191, 24, 239, 195, 62, 117, 0, 48, 0, 0, 127, 0, 127, 0, 0, 128, 57, 94, 131, 108, 63, 0, 0, 128, 63, 24, 239, 195, 62, 117, 0, 48, 0, 0, 127, 0, 127, 0, 56, 128, 57, 0, 0, 128, 63, 0, 0, 128, 63, 46, 189, 59, 51, 127, 0, 0, 0, 0, 127, 0, 127, 0, 56, 0, 58, 0, 0, 128, 63, 0, 0, 128, 191, 46, 189, 59, 51, 127, 0, 0, 0, 0, 127, 0, 127, 0, 0, 0, 58, 243, 4, 53, 63, 0, 0, 128, 63, 243, 4, 53, 63, 89, 0, 89, 0, 0, 127, 0, 127, 0, 56, 0, 57, 94, 131, 108, 63, 0, 0, 128, 191, 24, 239, 195, 62, 117, 0, 48, 0, 0, 127, 0, 127, 0, 0, 128, 57, 243, 4, 53, 63, 0, 0, 128, 191, 243, 4, 53, 63, 89, 0, 89, 0, 0, 127, 0, 127, 0, 0, 0, 57, 243, 4, 53, 63, 0, 0, 128, 63, 243, 4, 53, 63, 89, 0, 89, 0, 0, 127, 0, 127, 0, 56, 0, 57, 94, 131, 108, 63, 0, 0, 128, 63, 24, 239, 195, 62, 117, 0, 48, 0, 0, 127, 0, 127, 0, 56, 128, 57, 94, 131, 108, 63, 0, 0, 128, 191, 24, 239, 195, 62, 117, 0, 48, 0, 0, 127, 0, 127, 0, 0, 128, 57, 23, 239, 195, 62, 0, 0, 128, 63, 94, 131, 108, 63, 48, 0, 117, 0, 0, 126, 0, 127, 0, 56, 128, 56, 243, 4, 53, 63, 0, 0, 128, 191, 243, 4, 53, 63, 89, 0, 89, 0, 0, 127, 0, 127, 0, 0, 0, 57, 23, 239, 195, 62, 0, 0, 128, 191, 94, 131, 108, 63, 48, 0, 117, 0, 0, 127, 0, 127, 0, 0, 128, 56, 23, 239, 195, 62, 0, 0, 128, 63, 94, 131, 108, 63, 48, 0, 117, 0, 0, 126, 0, 127, 0, 56, 128, 56, 243, 4, 53, 63, 0, 0, 128, 63, 243, 4, 53, 63, 89, 0, 89, 0, 0, 127, 0, 127, 0, 56, 0, 57, 243, 4, 53, 63, 0, 0, 128, 191, 243, 4, 53, 63, 89, 0, 89, 0, 0, 127, 0, 127, 0, 0, 0, 57, 105, 33, 34, 52, 0, 0, 128, 63, 0, 0, 128, 63, 0, 0, 127, 0, 0, 127, 0, 127, 0, 56, 0, 56, 23, 239, 195, 62, 0, 0, 128, 191, 94, 131, 108, 63, 48, 0, 117, 0, 0, 127, 0, 127, 0, 0, 128, 56, 105, 33, 34, 52, 0, 0, 128, 191, 0, 0, 128, 63, 0, 0, 127, 0, 0, 127, 0, 127, 0, 0, 0, 56, 105, 33, 34, 52, 0, 0, 128, 63, 0, 0, 128, 63, 0, 0, 127, 0, 0, 127, 0, 127, 0, 56, 0, 56, 23, 239, 195, 62, 0, 0, 128, 63, 94, 131, 108, 63, 48, 0, 117, 0, 0, 126, 0, 127, 0, 56, 128, 56, 23, 239, 195, 62, 0, 0, 128, 191, 94, 131, 108, 63, 48, 0, 117, 0, 0, 127, 0, 127, 0, 0, 128, 56, 14, 239, 195, 190, 0, 0, 128, 63, 96, 131, 108, 63, 208, 0, 117, 0, 0, 127, 0, 127, 0, 56, 0, 55, 105, 33, 34, 52, 0, 0, 128, 191, 0, 0, 128, 63, 0, 0, 127, 0, 0, 127, 0, 127, 0, 0, 0, 56, 14, 239, 195, 190, 0, 0, 128, 191, 96, 131, 108, 63, 208, 0, 117, 0, 0, 127, 0, 127, 0, 0, 0, 55, 14, 239, 195, 190, 0, 0, 128, 63, 96, 131, 108, 63, 208, 0, 117, 0, 0, 127, 0, 127, 0, 56, 0, 55, 105, 33, 34, 52, 0, 0, 128, 63, 0, 0, 128, 63, 0, 0, 127, 0, 0, 127, 0, 127, 0, 56, 0, 56, 105, 33, 34, 52, 0, 0, 128, 191, 0, 0, 128, 63, 0, 0, 127, 0, 0, 127, 0, 127, 0, 0, 0, 56, 240, 4, 53, 191, 0, 0, 128, 63, 247, 4, 53, 63, 167, 0, 89, 0, 0, 127, 0, 127, 0, 56, 0, 54, 14, 239, 195, 190, 0, 0, 128, 191, 96, 131, 108, 63, 208, 0, 117, 0, 0, 127, 0, 127, 0, 0, 0, 55, 240, 4, 53, 191, 0, 0, 128, 191, 247, 4, 53, 63, 167, 0, 89, 0, 0, 127, 0, 127, 0, 0, 0, 54, 240, 4, 53, 191, 0, 0, 128, 63, 247, 4, 53, 63, 167, 0, 89, 0, 0, 127, 0, 127, 0, 56, 0, 54, 14, 239, 195, 190, 0, 0, 128, 63, 96, 131, 108, 63, 208, 0, 117, 0, 0, 127, 0, 127, 0, 56, 0, 55, 14, 239, 195, 190, 0, 0, 128, 191, 96, 131, 108, 63, 208, 0, 117, 0, 0, 127, 0, 127, 0, 0, 0, 55, 94, 131, 108, 191, 0, 0, 128, 63, 26, 239, 195, 62, 139, 0, 48, 0, 0, 127, 0, 127, 0, 56, 0, 53, 240, 4, 53, 191, 0, 0, 128, 191, 247, 4, 53, 63, 167, 0, 89, 0, 0, 127, 0, 127, 0, 0, 0, 54, 94, 131, 108, 191, 0, 0, 128, 191, 26, 239, 195, 62, 139, 0, 48, 0, 0, 127, 0, 127, 0, 0, 0, 53, 94, 131, 108, 191, 0, 0, 128, 63, 26, 239, 195, 62, 139, 0, 48, 0, 0, 127, 0, 127, 0, 56, 0, 53, 240, 4, 53, 191, 0, 0, 128, 63, 247, 4, 53, 63, 167, 0, 89, 0, 0, 127, 0, 127, 0, 56, 0, 54, 240, 4, 53, 191, 0, 0, 128, 191, 247, 4, 53, 63, 167, 0, 89, 0, 0, 127, 0, 127, 0, 0, 0, 54, 0, 0, 128, 191, 0, 0, 128, 63, 46, 222, 76, 178, 129, 0, 0, 0, 0, 127, 0, 127, 0, 56, 0, 52, 94, 131, 108, 191, 0, 0, 128, 191, 26, 239, 195, 62, 139, 0, 48, 0, 0, 127, 0, 127, 0, 0, 0, 53, 0, 0, 128, 191, 0, 0, 128, 191, 46, 222, 76, 178, 129, 0, 0, 0, 0, 127, 0, 127, 0, 0, 0, 52, 0, 0, 128, 191, 0, 0, 128, 63, 46, 222, 76, 178, 129, 0, 0, 0, 0, 127, 0, 127, 0, 56, 0, 52, 94, 131, 108, 191, 0, 0, 128, 63, 26, 239, 195, 62, 139, 0, 48, 0, 0, 127, 0, 127, 0, 56, 0, 53, 94, 131, 108, 191, 0, 0, 128, 191, 26, 239, 195, 62, 139, 0, 48, 0, 0, 127, 0, 127, 0, 0, 0, 53, 93, 131, 108, 191, 0, 0, 128, 63, 27, 239, 195, 190, 139, 0, 208, 0, 0, 127, 0, 127, 0, 56, 0, 50, 0, 0, 128, 191, 0, 0, 128, 191, 46, 222, 76, 178, 129, 0, 0, 0, 0, 127, 0, 127, 0, 0, 0, 52, 93, 131, 108, 191, 0, 0, 128, 191, 27, 239, 195, 190, 139, 0, 208, 0, 0, 127, 0, 127, 0, 0, 0, 50, 93, 131, 108, 191, 0, 0, 128, 63, 27, 239, 195, 190, 139, 0, 208, 0, 0, 127, 0, 127, 0, 56, 0, 50, 0, 0, 128, 191, 0, 0, 128, 63, 46, 222, 76, 178, 129, 0, 0, 0, 0, 127, 0, 127, 0, 56, 0, 52, 0, 0, 128, 191, 0, 0, 128, 191, 46, 222, 76, 178, 129, 0, 0, 0, 0, 127, 0, 127, 0, 0, 0, 52, 239, 4, 53, 191, 0, 0, 128, 63, 247, 4, 53, 191, 167, 0, 167, 0, 0, 127, 0, 127, 0, 56, 0, 48, 93, 131, 108, 191, 0, 0, 128, 191, 27, 239, 195, 190, 139, 0, 208, 0, 0, 127, 0, 127, 0, 0, 0, 50, 239, 4, 53, 191, 0, 0, 128, 191, 247, 4, 53, 191, 167, 0, 167, 0, 0, 127, 0, 127, 0, 0, 0, 48, 239, 4, 53, 191, 0, 0, 128, 63, 247, 4, 53, 191, 167, 0, 167, 0, 0, 127, 0, 127, 0, 56, 0, 48, 93, 131, 108, 191, 0, 0, 128, 63, 27, 239, 195, 190, 139, 0, 208, 0, 0, 127, 0, 127, 0, 56, 0, 50, 93, 131, 108, 191, 0, 0, 128, 191, 27, 239, 195, 190, 139, 0, 208, 0, 0, 127, 0, 127, 0, 0, 0, 50, 6, 239, 195, 190, 0, 0, 128, 63, 98, 131, 108, 191, 208, 0, 139, 0, 0, 127, 0, 127, 0, 56, 0, 44, 239, 4, 53, 191, 0, 0, 128, 191, 247, 4, 53, 191, 167, 0, 167, 0, 0, 127, 0, 127, 0, 0, 0, 48, 6, 239, 195, 190, 0, 0, 128, 191, 98, 131, 108, 191, 208, 0, 139, 0, 0, 127, 0, 127, 0, 0, 0, 44, 6, 239, 195, 190, 0, 0, 128, 63, 98, 131, 108, 191, 208, 0, 139, 0, 0, 127, 0, 127, 0, 56, 0, 44, 239, 4, 53, 191, 0, 0, 128, 63, 247, 4, 53, 191, 167, 0, 167, 0, 0, 127, 0, 127, 0, 56, 0, 48, 239, 4, 53, 191, 0, 0, 128, 191, 247, 4, 53, 191, 167, 0, 167, 0, 0, 127, 0, 127, 0, 0, 0, 48, 0, 0, 0, 0, 0, 0, 128, 63, 0, 0, 128, 191, 0, 0, 130, 0, 0, 127, 0, 127, 0, 56, 0, 0, 6, 239, 195, 190, 0, 0, 128, 191, 98, 131, 108, 191, 208, 0, 139, 0, 0, 127, 0, 127, 0, 0, 0, 44, 0, 0, 0, 0, 0, 0, 128, 191, 0, 0, 128, 191, 0, 0, 130, 0, 0, 127, 0, 127, 0, 0, 0, 0, 0, 0, 0, 0, 0, 0, 128, 63, 0, 0, 128, 191, 0, 0, 130, 0, 0, 127, 0, 127, 0, 56, 0, 0, 6, 239, 195, 190, 0, 0, 128, 63, 98, 131, 108, 191, 208, 0, 139, 0, 0, 127, 0, 127, 0, 56, 0, 44, 6, 239, 195, 190, 0, 0, 128, 191, 98, 131, 108, 191, 208, 0, 139, 0, 0, 127, 0, 127, 0, 0, 0, 44 ),
"array_index_data": PoolByteArray(  ),
"blend_shape_data": [  ],
"format": 97303,
"index_count": 0,
"material": ExtResource( 1 ),
"primitive": 4,
"skeleton_aabb": [  ],
"vertex_count": 96
}

[sub_resource type="CapsuleShape" id=2]
radius = 0.2
height = 4.0

[node name="PortalHalo" type="Spatial"]
script = ExtResource( 2 )

[node name="PortalHalo" type="MeshInstance" parent="."]
transform = Transform( 1, 0, 0, 0, -2, 3.25841e-07, 0, -6.51683e-07, -1, 0, 2, 0 )
mesh = SubResource( 1 )
material/0 = ExtResource( 1 )

[node name="TriggerArea" type="Area" parent="."]
collision_layer = 0

[node name="CollisionShape" type="CollisionShape" parent="TriggerArea"]
transform = Transform( 1, 0, 0, 0, -1.62921e-07, -1, 0, 1, -1.62921e-07, 0, 2, 0 )
shape = SubResource( 2 )
[connection signal="body_entered" from="TriggerArea" to="." method="_on_TriggerArea_body_entered"]
