[gd_resource type="AudioBusLayout" load_steps=3 format=2]

[sub_resource type="AudioEffectReverb" id=1]
resource_name = "Reverb"

[sub_resource type="AudioEffectReverb" id=2]
resource_name = "Reverb"
room_size = 0.55
damping = 0.15
wet = 0.3

[resource]
bus/1/name = "Gunshot"
bus/1/solo = false
bus/1/mute = false
bus/1/bypass_fx = false
bus/1/volume_db = 0.0
bus/1/send = "Master"
bus/1/effect/0/effect = SubResource( 1 )
bus/1/effect/0/enabled = false
bus/2/name = "Impact"
bus/2/solo = false
bus/2/mute = false
bus/2/bypass_fx = false
bus/2/volume_db = 0.0
bus/2/send = "Master"
bus/3/name = "Venue"
bus/3/solo = false
bus/3/mute = false
bus/3/bypass_fx = false
bus/3/volume_db = 0.0
bus/3/send = "Master"
bus/3/effect/0/effect = SubResource( 2 )
bus/3/effect/0/enabled = true
