[gd_scene load_steps=2 format=2]

[ext_resource path="res://scripts/weapons/components/bullet_leave_barrel_sound.gd" type="Script" id=1]

[node name="BulletLeaveBarrelSound" type="AudioStreamPlayer3D"]
max_distance = 100.0
bus = "Gunshot"
script = ExtResource( 1 )
