[gd_scene load_steps=5 format=2]

[ext_resource path="res://assets/particle_materials/impact_spark.tres" type="Material" id=1]
[ext_resource path="res://scripts/maps/utils/explosion.gd" type="Script" id=2]
[ext_resource path="res://assets/maps/utils/explosion/explosion_sound.wav" type="AudioStream" id=3]

[sub_resource type="CubeMesh" id=1]
size = Vector3( 0.025, 0.025, 0.025 )

[node name="Explosion" type="CPUParticles"]
transform = Transform( -0.0106639, -0.999943, 0, 0.999943, -0.0106639, 0, 0, 0, 1, 0, 0, 0 )
layers = 3
material_override = ExtResource( 1 )
cast_shadow = 0
emitting = false
amount = 32
one_shot = true
explosiveness = 1.0
randomness = 1.0
lifetime_randomness = 0.5
mesh = SubResource( 1 )
gravity = Vector3( -9.8, 0, 0 )
initial_velocity = 10.0
initial_velocity_random = 0.75
angular_velocity = 10.0
angular_velocity_random = 0.75
scale_amount = 2.0
scale_amount_random = 0.75
script = ExtResource( 2 )

[node name="ExplosionSoundPlayer" type="AudioStreamPlayer3D" parent="."]
stream = ExtResource( 3 )
attenuation_model = 3
max_distance = 400.0

[node name="Flash" type="OmniLight" parent="."]
layers = 3
light_energy = 1.5
omni_range = 20.0
