[gd_scene load_steps=4 format=2]

[ext_resource path="res://assets/system/player/controller_halo/controller_halo.material" type="Material" id=1]
[ext_resource path="res://scripts/system/player/controller_halo.gd" type="Script" id=2]

[sub_resource type="ArrayMesh" id=1]
resource_name = "ControllerHalo"
surfaces/0 = {
"aabb": AABB( -0.1, 0, -0.1, 0.2, 1e-05, 0.2 ),
"array_data": PoolByteArray( 195, 208, 144, 61, 0, 0, 0, 0, 195, 208, 144, 189, 0, 127, 0, 0, 117, 0, 208, 127, 255, 59, 175, 52, 39, 240, 111, 48, 0, 0, 0, 0, 172, 97, 149, 189, 0, 127, 0, 0, 117, 0, 208, 127, 53, 57, 84, 48, 0, 0, 0, 0, 0, 0, 0, 0, 205, 204, 204, 189, 0, 127, 0, 0, 117, 0, 208, 127, 168, 57, 144, 6, 195, 208, 144, 61, 0, 0, 0, 0, 195, 208, 144, 189, 0, 127, 0, 0, 117, 0, 208, 127, 255, 59, 175, 52, 228, 65, 83, 61, 0, 0, 0, 0, 228, 65, 83, 189, 0, 127, 0, 0, 117, 0, 208, 127, 234, 58, 149, 53, 39, 240, 111, 48, 0, 0, 0, 0, 172, 97, 149, 189, 0, 127, 0, 0, 117, 0, 208, 127, 53, 57, 84, 48, 195, 208, 144, 61, 0, 0, 0, 0, 195, 208, 144, 61, 0, 127, 0, 0, 117, 0, 208, 127, 168, 57, 255, 59, 212, 103, 210, 177, 0, 0, 0, 0, 171, 97, 149, 61, 0, 127, 0, 0, 117, 0, 208, 127, 149, 53, 234, 58, 228, 65, 83, 61, 0, 0, 0, 0, 228, 65, 83, 61, 0, 127, 0, 0, 117, 0, 208, 127, 53, 57, 234, 58, 242, 48, 22, 178, 0, 0, 0, 0, 205, 204, 204, 61, 0, 127, 0, 0, 117, 0, 208, 127, 175, 52, 255, 59, 212, 103, 210, 177, 0, 0, 0, 0, 171, 97, 149, 61, 0, 127, 0, 0, 117, 0, 208, 127, 149, 53, 234, 58, 195, 208, 144, 61, 0, 0, 0, 0, 195, 208, 144, 61, 0, 127, 0, 0, 117, 0, 208, 127, 168, 57, 255, 59, 230, 65, 83, 189, 0, 0, 0, 0, 224, 65, 83, 61, 0, 127, 0, 0, 117, 0, 208, 127, 84, 48, 53, 57, 205, 204, 204, 189, 0, 0, 0, 0, 242, 228, 163, 176, 0, 127, 0, 0, 117, 0, 208, 127, 141, 6, 175, 52, 171, 97, 149, 189, 0, 0, 0, 0, 242, 228, 163, 176, 0, 127, 0, 0, 117, 0, 208, 127, 84, 48, 149, 53, 230, 65, 83, 189, 0, 0, 0, 0, 224, 65, 83, 61, 0, 127, 0, 0, 117, 0, 208, 127, 84, 48, 53, 57, 196, 208, 144, 189, 0, 0, 0, 0, 193, 208, 144, 61, 0, 127, 0, 0, 117, 0, 208, 127, 141, 6, 168, 57, 205, 204, 204, 189, 0, 0, 0, 0, 242, 228, 163, 176, 0, 127, 0, 0, 117, 0, 208, 127, 141, 6, 175, 52, 39, 240, 111, 48, 0, 0, 0, 0, 172, 97, 149, 189, 0, 126, 0, 0, 117, 0, 208, 127, 53, 57, 84, 48, 196, 208, 144, 189, 0, 0, 0, 0, 194, 208, 144, 189, 0, 126, 0, 0, 117, 0, 208, 127, 175, 52, 144, 6, 0, 0, 0, 0, 0, 0, 0, 0, 205, 204, 204, 189, 0, 126, 0, 0, 117, 0, 208, 127, 168, 57, 144, 6, 230, 65, 83, 189, 0, 0, 0, 0, 226, 65, 83, 189, 0, 126, 0, 0, 117, 0, 208, 127, 149, 53, 84, 48, 196, 208, 144, 189, 0, 0, 0, 0, 194, 208, 144, 189, 0, 126, 0, 0, 117, 0, 208, 127, 175, 52, 144, 6, 39, 240, 111, 48, 0, 0, 0, 0, 172, 97, 149, 189, 0, 126, 0, 0, 117, 0, 208, 127, 53, 57, 84, 48, 205, 204, 204, 61, 0, 0, 0, 0, 242, 48, 150, 49, 0, 126, 0, 0, 117, 0, 208, 127, 255, 59, 168, 57, 228, 65, 83, 61, 0, 0, 0, 0, 228, 65, 83, 189, 0, 126, 0, 0, 117, 0, 208, 127, 234, 58, 149, 53, 195, 208, 144, 61, 0, 0, 0, 0, 195, 208, 144, 189, 0, 126, 0, 0, 117, 0, 208, 127, 255, 59, 175, 52, 205, 204, 204, 61, 0, 0, 0, 0, 242, 48, 150, 49, 0, 126, 0, 0, 117, 0, 208, 127, 255, 59, 168, 57, 171, 97, 149, 61, 0, 0, 0, 0, 218, 101, 112, 49, 0, 126, 0, 0, 117, 0, 208, 127, 234, 58, 53, 57, 228, 65, 83, 61, 0, 0, 0, 0, 228, 65, 83, 189, 0, 126, 0, 0, 117, 0, 208, 127, 234, 58, 149, 53, 205, 204, 204, 61, 0, 0, 0, 0, 242, 48, 150, 49, 0, 126, 0, 0, 117, 0, 208, 127, 255, 59, 168, 57, 228, 65, 83, 61, 0, 0, 0, 0, 228, 65, 83, 61, 0, 126, 0, 0, 117, 0, 208, 127, 53, 57, 234, 58, 171, 97, 149, 61, 0, 0, 0, 0, 218, 101, 112, 49, 0, 126, 0, 0, 117, 0, 208, 127, 234, 58, 53, 57, 195, 208, 144, 61, 0, 0, 0, 0, 195, 208, 144, 61, 0, 126, 0, 0, 117, 0, 208, 127, 168, 57, 255, 59, 228, 65, 83, 61, 0, 0, 0, 0, 228, 65, 83, 61, 0, 126, 0, 0, 117, 0, 208, 127, 53, 57, 234, 58, 205, 204, 204, 61, 0, 0, 0, 0, 242, 48, 150, 49, 0, 126, 0, 0, 117, 0, 208, 127, 255, 59, 168, 57, 212, 103, 210, 177, 0, 0, 0, 0, 171, 97, 149, 61, 0, 127, 0, 0, 117, 0, 208, 127, 149, 53, 234, 58, 196, 208, 144, 189, 0, 0, 0, 0, 193, 208, 144, 61, 0, 127, 0, 0, 117, 0, 208, 127, 141, 6, 168, 57, 230, 65, 83, 189, 0, 0, 0, 0, 224, 65, 83, 61, 0, 127, 0, 0, 117, 0, 208, 127, 84, 48, 53, 57, 212, 103, 210, 177, 0, 0, 0, 0, 171, 97, 149, 61, 0, 127, 0, 0, 117, 0, 208, 127, 149, 53, 234, 58, 242, 48, 22, 178, 0, 0, 0, 0, 205, 204, 204, 61, 0, 127, 0, 0, 117, 0, 208, 127, 175, 52, 255, 59, 196, 208, 144, 189, 0, 0, 0, 0, 193, 208, 144, 61, 0, 127, 0, 0, 117, 0, 208, 127, 141, 6, 168, 57, 230, 65, 83, 189, 0, 0, 0, 0, 226, 65, 83, 189, 0, 127, 0, 0, 117, 0, 208, 127, 149, 53, 84, 48, 205, 204, 204, 189, 0, 0, 0, 0, 242, 228, 163, 176, 0, 127, 0, 0, 117, 0, 208, 127, 141, 6, 175, 52, 196, 208, 144, 189, 0, 0, 0, 0, 194, 208, 144, 189, 0, 127, 0, 0, 117, 0, 208, 127, 175, 52, 144, 6, 171, 97, 149, 189, 0, 0, 0, 0, 242, 228, 163, 176, 0, 127, 0, 0, 117, 0, 208, 127, 84, 48, 149, 53, 205, 204, 204, 189, 0, 0, 0, 0, 242, 228, 163, 176, 0, 127, 0, 0, 117, 0, 208, 127, 141, 6, 175, 52, 230, 65, 83, 189, 0, 0, 0, 0, 226, 65, 83, 189, 0, 127, 0, 0, 117, 0, 208, 127, 149, 53, 84, 48 ),
"array_index_data": PoolByteArray(  ),
"blend_shape_data": [  ],
"format": 97303,
"index_count": 0,
"material": ExtResource( 1 ),
"primitive": 4,
"skeleton_aabb": [  ],
"vertex_count": 48
}

[node name="ControllerHalo" type="Spatial"]
script = ExtResource( 2 )

[node name="ControllerHalo" type="MeshInstance" parent="."]
transform = Transform( 1, 0, 0, 0, 1, 0, 0, 0, 1, 0, -0.05, 0 )
layers = 3
cast_shadow = 0
mesh = SubResource( 1 )
material/0 = ExtResource( 1 )
