[gd_scene load_steps=4 format=2]

[ext_resource path="res://scripts/system/player/nozzles.gd" type="Script" id=1]
[ext_resource path="res://assets/particle_materials/nozzles.tres" type="Material" id=2]

[sub_resource type="CubeMesh" id=1]
size = Vector3( 0.01, 0.01, 0.01 )

[node name="Nozzles" type="Spatial"]
script = ExtResource( 1 )

[node name="CPUParticleFL" type="CPUParticles" parent="."]
transform = Transform( -1.62921e-07, 1, 0, -1, -1.62921e-07, 0, 0, 0, 1, -0.262, 0.1, -0.1 )
layers = 2
material_override = ExtResource( 2 )
cast_shadow = 0
amount = 4
lifetime = 0.5
randomness = 1.0
lifetime_randomness = 0.5
local_coords = false
mesh = SubResource( 1 )
gravity = Vector3( 1, 0, 0 )
initial_velocity = 1.0
initial_velocity_random = 0.5
linear_accel = -2.0
linear_accel_random = 0.25
scale_amount = 2.0
scale_amount_random = 1.0

[node name="CPUParticleFR" type="CPUParticles" parent="."]
transform = Transform( -1.62921e-07, 1, 0, -1, -1.62921e-07, 0, 0, 0, 1, 0.262, 0.1, -0.1 )
layers = 2
material_override = ExtResource( 2 )
cast_shadow = 0
amount = 4
lifetime = 0.5
randomness = 1.0
lifetime_randomness = 0.5
local_coords = false
mesh = SubResource( 1 )
gravity = Vector3( 1, 0, 0 )
initial_velocity = 1.0
initial_velocity_random = 0.5
linear_accel = -2.0
linear_accel_random = 0.25
scale_amount = 2.0
scale_amount_random = 1.0

[node name="CPUParticleRL" type="CPUParticles" parent="."]
transform = Transform( -1.62921e-07, 1, 0, -1, -1.62921e-07, 0, 0, 0, 1, -0.262, 0.1, 0.1 )
layers = 2
material_override = ExtResource( 2 )
cast_shadow = 0
amount = 4
lifetime = 0.5
randomness = 1.0
lifetime_randomness = 0.5
local_coords = false
mesh = SubResource( 1 )
gravity = Vector3( 1, 0, 0 )
initial_velocity = 1.0
initial_velocity_random = 0.5
linear_accel = -2.0
linear_accel_random = 0.25
scale_amount = 2.0
scale_amount_random = 1.0

[node name="CPUParticleRR" type="CPUParticles" parent="."]
transform = Transform( -1.62921e-07, 1, 0, -1, -1.62921e-07, 0, 0, 0, 1, 0.262, 0.1, 0.1 )
layers = 2
material_override = ExtResource( 2 )
cast_shadow = 0
amount = 4
lifetime = 0.5
randomness = 1.0
lifetime_randomness = 0.5
local_coords = false
mesh = SubResource( 1 )
gravity = Vector3( 1, 0, 0 )
initial_velocity = 1.0
initial_velocity_random = 0.5
linear_accel = -2.0
linear_accel_random = 0.25
scale_amount = 2.0
scale_amount_random = 1.0
